1 10 20
100 200 125
201 210 89
900 1000 174
930502 930793 264
460876 771608 509
416751 972136 525
605709 319005 470
945687 666891 525
29617 546545 470
731499 542146 509
302148 447474 449
648872 444770 509
91477 153603 375
285421 302154 389
946030 229272 525
19656 341818 443
592465 958241 525
543206 233543 470
41170 139119 354
226459 215018 386
893204 464924 525
975519 115742 525
394660 821332 509
351777 389396 436
226847 713013 509
804226 982795 525
79899 685259 509
774453 191350 509
972896 788416 525
639491 560350 509
254927 765372 509
342290 589271 470
235793 670005 509
817764 219717 509
441014 125525 449
939358 568990 525
640297 774062 504
853909 744944 525
393251 410159 449
148279 244855 443
176718 520258 470
516549 589339 452
921727 990893 507
613047 669124 509
889276 865298 445
225563 216085 386
967192 329724 525
110418 189441 383
316049 59651 443
280198 361890 441
544443 292879 470
74342 889059 525
442960 288987 449
261312 776588 509
694430 940827 525
457214 220081 449
850620 473728 525
921502 124637 525
678178 165708 509
976551 165567 525
95089 338756 443
635577 972988 525
859264 125026 525
406365 36630 443
553021 45449 470
956929 464210 525
287742 891364 525
206688 552637 470
722357 235893 509
384686 282023 441
152276 565243 470
131908 657258 509
491821 787085 509
340512 47084 443
948241 308368 525
948263 51741 525
122560 15958 354
64631 945121 525
61546 411512 449
302492 259313 407
476035 636039 509
565454 541175 452
583688 175617 470
975978 684791 525
544184 352784 470
671289 304068 509
776094 232162 509
370973 43591 443
900087 511404 525
763153 731852 424
673133 939372 525
299450 717182 509
500101 926219 525
257535 269173 407
276905 371926 441
987612 282643 525
490466 749510 509
43070 151591 375
305318 78224 443
352889 17146 443
72853 610640 470
901696 180063 525
570396 91701 470
464314 669115 509
363420 866534 525
815002 203477 509
993344 202220 525
633838 183015 509
785576 767474 468
909049 428590 525
908898 301404 525
995851 437150 525
882942 805613 525
397619 3125 443
204107 606807 470
217130 784187 509
474219 13418 449
772258 474246 509
864782 849457 419
338450 82582 443
849075 754389 525
527618 527680 196
345007 835201 509
602058 47811 470
908590 440305 525
447569 188169 449
979580 81758 525
773011 705261 468
120101 624734 470
366491 976795 525
450266 456265 387
450248 41511 449
833090 216202 509
276303 931881 525
618959 678809 509
242390 353594 441
461921 933607 525
943433 627247 525
897871 998965 507
261426 161025 443
328393 676784 509
931717 475072 525
49592 408995 443
450431 748560 509
823632 11313 509
878250 960249 507
900717 864124 445
858209 837011 525
816081 439266 509
84810 600369 470
695433 71373 509
454806 932663 525
519492 863329 525
257623 138508 443
999010 823668 525
711195 487652 509
117732 34316 354
955626 36714 525
549874 58447 470
614541 585392 403
789133 864753 525
658120 371181 509
361809 686948 509
875122 216065 525
781752 487719 509
480191 128806 449
229569 215231 386
371973 671771 509
218347 540161 470
513134 78631 470
222247 889091 525
410246 324833 449
893877 771264 525
188728 973481 525
203638 816510 509
102760 69197 351
681013 670112 385
667023 672400 367
788491 707215 468
78089 527485 470
163330 490790 449
608053 209153 470
980998 509634 525
76895 779375 509
244404 960173 525
931163 584945 525
954635 314630 525
661398 321956 509
687636 956085 525
905861 459986 525
596516 408595 470
603755 713255 509
924735 299784 525
948938 991275 458
411253 862546 525
124975 938520 525
548612 120143 470
500753 315298 449
270552 788845 509
853108 59063 525
684058 795872 504
56508 233295 443
458986 92973 449
754968 14636 509
918801 849834 476
879161 300589 525
609886 870394 525
186742 537929 470
635987 84631 509
365841 166094 443
402401 877832 525
463245 446141 444
925966 819859 525
445976 323083 449
749214 167471 509
69811 166917 383
718513 797470 468
631986 968076 525
319030 821964 509
876197 107124 525
490589 197972 449
214911 628216 509
937875 344038 525
953790 952770 414
300158 13132 443
383779 430864 449
307443 911037 525
114062 36098 354
277878 536854 470
854692 924075 476
23453 15968 279
389366 21241 443
512227 225548 470
278625 321471 389
135589 967099 525
277350 476856 449
671285 574345 509
11296 683278 509
536582 912933 525
563691 238767 470
441978 498975 444
519435 525635 408
492590 640159 509
753679 390962 509
879704 58277 525
642116 572468 509
38447 383122 443
454261 617786 470
586709 988101 525
682083 102860 509
418354 479607 444
490885 945991 525
911165 525106 525
